(footprint "TO-220F-5_Horizontal_TabUp"
	(version 20240108)
	(generator "pcbnew")
	(generator_version "8.0")
	(layer "F.Cu")
	(descr "TO-220F-5, Horizontal, RM 1.7mm, PentawattF")
	(tags "TO-220F-5 Horizontal RM 1.7mm PentawattF")
	(property "Reference" "REF**"
		(at 3.4 20.22 0)
		(layer "F.SilkS")
		(uuid "390095d0-5ff3-41ee-a491-44c73efb1577")
		(effects
			(font
				(size 1 1)
				(thickness 0.15)
			)
		)
	)
	(property "Value" "TO-220F-5_Horizontal_TabUp"
		(at 3.4 -1.9 0)
		(layer "F.Fab")
		(uuid "8c18ad7d-8e28-4a80-980c-673c3eeffe70")
		(effects
			(font
				(size 1 1)
				(thickness 0.15)
			)
		)
	)
	(property "Footprint" ""
		(at 0 0 0)
		(layer "F.Fab")
		(hide yes)
		(uuid "e63fdfd7-b7bd-42df-b68e-30c404d45cc8")
		(effects
			(font
				(size 1.27 1.27)
				(thickness 0.15)
			)
		)
	)
	(property "Datasheet" ""
		(at 0 0 0)
		(layer "F.Fab")
		(hide yes)
		(uuid "fa542c68-3473-4c9e-9a67-427831eb4916")
		(effects
			(font
				(size 1.27 1.27)
				(thickness 0.15)
			)
		)
	)
	(property "Description" ""
		(at 0 0 0)
		(layer "F.Fab")
		(hide yes)
		(uuid "c3f24e49-8e3f-47a6-b3eb-a246bbb15b25")
		(effects
			(font
				(size 1.27 1.27)
				(thickness 0.15)
			)
		)
	)
	(attr through_hole)
	(fp_line
		(start -1.85 3.11)
		(end -1.85 12.54)
		(stroke
			(width 0.12)
			(type solid)
		)
		(layer "F.SilkS")
		(uuid "302912e8-8d95-43eb-826e-46cbb4faded4")
	)
	(fp_line
		(start -1.85 3.11)
		(end 8.65 3.11)
		(stroke
			(width 0.12)
			(type solid)
		)
		(layer "F.SilkS")
		(uuid "6ed66548-9b7b-4ae5-b1ae-1a4584b0fa16")
	)
	(fp_line
		(start -1.85 12.54)
		(end 8.65 12.54)
		(stroke
			(width 0.12)
			(type solid)
		)
		(layer "F.SilkS")
		(uuid "0ce216d6-1c22-44d9-84be-ed499c4bc9fc")
	)
	(fp_line
		(start -1.85 12.78)
		(end -1.85 13.98)
		(stroke
			(width 0.12)
			(type solid)
		)
		(layer "F.SilkS")
		(uuid "401380ba-a703-4369-8de1-08a3d0fc07ae")
	)
	(fp_line
		(start -1.85 15.18)
		(end -1.85 16.38)
		(stroke
			(width 0.12)
			(type solid)
		)
		(layer "F.SilkS")
		(uuid "d88b1cb5-f163-4f23-9eeb-7ec554212b5d")
	)
	(fp_line
		(start -1.85 17.58)
		(end -1.85 18.78)
		(stroke
			(width 0.12)
			(type solid)
		)
		(layer "F.SilkS")
		(uuid "c5a20848-960c-4cb4-b61e-40caef9d42a5")
	)
	(fp_line
		(start -1.85 19.22)
		(end -0.651 19.22)
		(stroke
			(width 0.12)
			(type solid)
		)
		(layer "F.SilkS")
		(uuid "94ad6e5e-2169-4b97-8955-4f94a49f49c0")
	)
	(fp_line
		(start 0 1.05)
		(end 0 3.11)
		(stroke
			(width 0.12)
			(type solid)
		)
		(layer "F.SilkS")
		(uuid "d6b944b7-6ff1-428e-887d-42b8fa200d33")
	)
	(fp_line
		(start 0.55 19.22)
		(end 1.75 19.22)
		(stroke
			(width 0.12)
			(type solid)
		)
		(layer "F.SilkS")
		(uuid "f505cf6a-217a-43ba-817f-24a9e1b27dee")
	)
	(fp_line
		(start 1.7 1.05)
		(end 1.7 3.11)
		(stroke
			(width 0.12)
			(type solid)
		)
		(layer "F.SilkS")
		(uuid "c65fb5c3-feb4-40a1-8619-6925c0e39761")
	)
	(fp_line
		(start 2.95 19.22)
		(end 4.15 19.22)
		(stroke
			(width 0.12)
			(type solid)
		)
		(layer "F.SilkS")
		(uuid "2f31e6d6-5cbb-4486-a54c-d1980ff69062")
	)
	(fp_line
		(start 3.4 1.05)
		(end 3.4 3.11)
		(stroke
			(width 0.12)
			(type solid)
		)
		(layer "F.SilkS")
		(uuid "cfb801ed-0485-45d7-ae04-095536d5dd1b")
	)
	(fp_line
		(start 5.1 1.05)
		(end 5.1 3.11)
		(stroke
			(width 0.12)
			(type solid)
		)
		(layer "F.SilkS")
		(uuid "27138a85-82c0-4ed2-8e0b-b519bed41a0c")
	)
	(fp_line
		(start 5.35 19.22)
		(end 6.55 19.22)
		(stroke
			(width 0.12)
			(type solid)
		)
		(layer "F.SilkS")
		(uuid "d29ff30e-b4b5-495e-b450-0f95030f26d9")
	)
	(fp_line
		(start 6.8 1.05)
		(end 6.8 3.11)
		(stroke
			(width 0.12)
			(type solid)
		)
		(layer "F.SilkS")
		(uuid "fc843b8d-2482-4b2b-892b-bde0969d392e")
	)
	(fp_line
		(start 7.75 19.22)
		(end 8.65 19.22)
		(stroke
			(width 0.12)
			(type solid)
		)
		(layer "F.SilkS")
		(uuid "bb071cf9-51ae-4487-ae7d-4e99cbaf7ac4")
	)
	(fp_line
		(start 8.65 3.11)
		(end 8.65 12.54)
		(stroke
			(width 0.12)
			(type solid)
		)
		(layer "F.SilkS")
		(uuid "2602965c-30b5-4754-8c96-927a0c1ccabc")
	)
	(fp_line
		(start 8.65 12.78)
		(end 8.65 13.98)
		(stroke
			(width 0.12)
			(type solid)
		)
		(layer "F.SilkS")
		(uuid "1e0c931f-75ca-4b53-b34e-0ad10a8374a3")
	)
	(fp_line
		(start 8.65 15.18)
		(end 8.65 16.38)
		(stroke
			(width 0.12)
			(type solid)
		)
		(layer "F.SilkS")
		(uuid "644934cb-ec8c-46a6-9380-73392bda3e6c")
	)
	(fp_line
		(start 8.65 17.58)
		(end 8.65 18.78)
		(stroke
			(width 0.12)
			(type solid)
		)
		(layer "F.SilkS")
		(uuid "5e07f462-01a8-452c-a522-afd7cb24802a")
	)
	(fp_line
		(start -1.98 -1.15)
		(end -1.98 19.35)
		(stroke
			(width 0.05)
			(type solid)
		)
		(layer "F.CrtYd")
		(uuid "8ccb4936-a788-4b7a-aa1b-7ff697296c4c")
	)
	(fp_line
		(start -1.98 19.35)
		(end 8.78 19.35)
		(stroke
			(width 0.05)
			(type solid)
		)
		(layer "F.CrtYd")
		(uuid "6364fb44-e6db-4ee7-8301-8174ced383c7")
	)
	(fp_line
		(start 8.78 -1.15)
		(end -1.98 -1.15)
		(stroke
			(width 0.05)
			(type solid)
		)
		(layer "F.CrtYd")
		(uuid "7e4c7570-e3d4-4df3-9280-1071a6a1e3b9")
	)
	(fp_line
		(start 8.78 19.35)
		(end 8.78 -1.15)
		(stroke
			(width 0.05)
			(type solid)
		)
		(layer "F.CrtYd")
		(uuid "31803f40-198a-4965-94d0-76ff82eab698")
	)
	(fp_line
		(start -1.73 3.23)
		(end -1.73 12.42)
		(stroke
			(width 0.1)
			(type solid)
		)
		(layer "F.Fab")
		(uuid "0c1e2990-5089-48f6-8413-2697be764994")
	)
	(fp_line
		(start -1.73 12.42)
		(end -1.73 19.1)
		(stroke
			(width 0.1)
			(type solid)
		)
		(layer "F.Fab")
		(uuid "eb8e651f-0496-4fba-bdbf-ccd94d2517fe")
	)
	(fp_line
		(start -1.73 12.42)
		(end 8.53 12.42)
		(stroke
			(width 0.1)
			(type solid)
		)
		(layer "F.Fab")
		(uuid "188aa7c7-64d5-46ce-925b-08fb43c221f2")
	)
	(fp_line
		(start -1.73 19.1)
		(end 8.53 19.1)
		(stroke
			(width 0.1)
			(type solid)
		)
		(layer "F.Fab")
		(uuid "a298e588-2d79-41c0-9e77-1b5158674282")
	)
	(fp_line
		(start 0 3.23)
		(end 0 0)
		(stroke
			(width 0.1)
			(type solid)
		)
		(layer "F.Fab")
		(uuid "e93918b1-4ba4-4131-b6f7-90720540452e")
	)
	(fp_line
		(start 1.7 3.23)
		(end 1.7 0)
		(stroke
			(width 0.1)
			(type solid)
		)
		(layer "F.Fab")
		(uuid "7b18c768-4cb4-4b0c-8ad9-fa037ea422f6")
	)
	(fp_line
		(start 3.4 3.23)
		(end 3.4 0)
		(stroke
			(width 0.1)
			(type solid)
		)
		(layer "F.Fab")
		(uuid "6aaec7f1-8de8-4edc-b2ba-b28020f43259")
	)
	(fp_line
		(start 5.1 3.23)
		(end 5.1 0)
		(stroke
			(width 0.1)
			(type solid)
		)
		(layer "F.Fab")
		(uuid "50aa7750-3389-47e2-b384-981f94784153")
	)
	(fp_line
		(start 6.8 3.23)
		(end 6.8 0)
		(stroke
			(width 0.1)
			(type solid)
		)
		(layer "F.Fab")
		(uuid "839e8cb3-921a-4ecb-9d20-c301546211a8")
	)
	(fp_line
		(start 8.53 3.23)
		(end -1.73 3.23)
		(stroke
			(width 0.1)
			(type solid)
		)
		(layer "F.Fab")
		(uuid "d4ff98d5-9af8-4b16-b1fd-695b1e554c11")
	)
	(fp_line
		(start 8.53 12.42)
		(end -1.73 12.42)
		(stroke
			(width 0.1)
			(type solid)
		)
		(layer "F.Fab")
		(uuid "d675af82-6a92-4437-81c2-66a2186784b0")
	)
	(fp_line
		(start 8.53 12.42)
		(end 8.53 3.23)
		(stroke
			(width 0.1)
			(type solid)
		)
		(layer "F.Fab")
		(uuid "e755368e-f56b-41e9-807a-1e76bee7e8d8")
	)
	(fp_line
		(start 8.53 19.1)
		(end 8.53 12.42)
		(stroke
			(width 0.1)
			(type solid)
		)
		(layer "F.Fab")
		(uuid "bb2266ec-ce8f-45e0-a502-95ffe2dec3af")
	)
	(fp_circle
		(center 3.4 15.8)
		(end 5.25 15.8)
		(stroke
			(width 0.1)
			(type solid)
		)
		(fill none)
		(layer "F.Fab")
		(uuid "495cb6c8-0c61-4453-8647-9fe954d723ed")
	)
	(fp_text user "${REFERENCE}"
		(at 3.4 20.22 0)
		(layer "F.Fab")
		(uuid "cc99afa5-617c-433f-b340-2ccc8b2c4fc8")
		(effects
			(font
				(size 1 1)
				(thickness 0.15)
			)
		)
	)
	(pad "" np_thru_hole circle
		(at 3.4 15.8)
		(size 3.5 3.5)
		(drill 3.5)
		(layers "*.Cu" "*.Mask")
		(uuid "4efb7f5d-1c76-48cd-9f42-2d5f5dbae8e9")
	)
	(pad "1" thru_hole rect
		(at 0 0)
		(size 1.275 1.8)
		(drill 1.2)
		(layers "*.Cu" "*.Mask")
		(remove_unused_layers no)
		(uuid "6e3cc1d5-fe20-4df0-bbd0-6b7d4caa8df9")
	)
	(pad "2" thru_hole oval
		(at 1.7 0)
		(size 1.275 1.8)
		(drill 1.2)
		(layers "*.Cu" "*.Mask")
		(remove_unused_layers no)
		(uuid "482a587a-49f7-437c-9a94-0c350dab0b39")
	)
	(pad "3" thru_hole oval
		(at 3.4 0)
		(size 1.275 1.8)
		(drill 1.2)
		(layers "*.Cu" "*.Mask")
		(remove_unused_layers no)
		(uuid "34ccfb21-3f02-43ee-9a14-625f3e8c858a")
	)
	(pad "4" thru_hole oval
		(at 5.1 0)
		(size 1.275 1.8)
		(drill 1.2)
		(layers "*.Cu" "*.Mask")
		(remove_unused_layers no)
		(uuid "29ea3a14-3aac-4c76-8bb9-48dcfd24a356")
	)
	(pad "5" thru_hole oval
		(at 6.8 0)
		(size 1.275 1.8)
		(drill 1.2)
		(layers "*.Cu" "*.Mask")
		(remove_unused_layers no)
		(uuid "818d9f41-b139-42ef-86da-db155b6588a2")
	)
	(model "${KICAD8_3DMODEL_DIR}/Package_TO_SOT_THT.3dshapes/TO-220F-5_Horizontal_TabUp.wrl"
		(offset
			(xyz 0 0 0)
		)
		(scale
			(xyz 1 1 1)
		)
		(rotate
			(xyz 0 0 0)
		)
	)
)
